country,city,lat,long,street_length_total,self_loop_proportion,streets_per_node_avg,circuity_avg,m,n,edge_length_total,count_intersections,k_avg,street_segments_count,street_length_avg,edge_length_avg,pagerank_min,clustering_coefficient_avg,avg_weighted_neighbor_degree_avg,pagerank_min_node,pagerank_max,avg_neighbor_degree_avg,clustering_coefficient_weighted_avg,pagerank_max_node,degree_centrality_avg
FR,Mougins,43.5993728638,7.0034136772,333869.037606,0.0090727357,2.6982031537,1.1168367863,6503,2727,603400.362993,2187,4.769343601,3632,91.924294495,92.7879998451,5.5618385849E-05,0.0655054394,0.0741140007,1479050322,0.001331456,2.6535998044,0.0011932015,1347347685,
FR,Mulhouse,47.7481307983,7.3256869316,456697.360202,0.0021040412,2.9699721965,1.0568514341,13783,5395,798762.683417,4799,5.1095458758,7934,57.5620569955,57.9527449334,2.78854428013E-05,0.0502996602,0.1019746258,306471095,0.0009108218,2.7196848934,0.0019211447,310683890,
FR,Bayonne,43.4916038513,-1.4717950821,359581.703979,0.0074183976,2.7275931521,1.1104076295,9436,3972,626170.350479,3207,4.7512588117,5412,66.4415565371,66.3597234505,3.79777961127E-05,0.0660624371,0.0826455707,3914391622,0.0010054393,2.6429128902,0.0016797347,388189778,
FR,Nimes,43.8342437744,4.3543977737,1151707.51392,0.0045563789,2.8079349672,1.1014122394,19972,8242,2053250.79144,6823,4.8463965057,11559,99.6372968179,102.806468628,1.83091541325E-05,0.0533001699,0.0682594093,395542779,0.0004915658,2.6614858853,0.0004007725,482789171,
FR,Clermont-ferrand,45.7839508057,3.1052737236,779598.641394,0.0030685305,2.8791676519,1.0715358014,20531,8458,1308319.33623,7192,4.8548120123,12092,64.4722660762,63.7240921644,1.78466430019E-05,0.0605633063,0.0858554608,3247539872,0.0009211843,2.6526483802,0.0012916914,26188907,
FR,Nancy,48.6898956299,6.1769275665,315904.791961,0.002081382,2.8923491908,1.061724842,9609,4078,507168.91248,3520,4.7126042178,5843,54.0655129148,52.7806132251,3.71518799193E-05,0.0582883767,0.1110480235,2136261431,0.0015635616,2.5440861533,0.0018718597,496061215,
FR,Pau,43.312286377,-0.3545427322,471338.319822,0.0104347826,2.7336073998,1.0893310338,12075,4865,856038.337052,3951,4.964028777,6651,70.8672860956,70.8934440623,3.09363449444E-05,0.0548955122,0.0738352785,465205782,0.0007482132,2.7153614252,0.001004562,286777497,
FR,Toulon,43.1309623718,5.9308691025,694625.173138,0.0039269586,2.7230915126,1.1048960388,15279,6327,1245081.14285,5087,4.8297771456,8587,80.8926485546,81.4897010833,0.000023924,0.0511692143,0.0662972603,296037417,0.0006289861,2.6794742111,0.0006812755,295716275,
FR,Angers,47.4697647095,-0.5600189567,656670.583336,0.004315197,2.8823251418,1.0708427725,15990,6348,1129024.61668,5415,5.0378071834,9096,72.1933358989,70.608168648,2.38160585352E-05,0.0481351457,0.0860797974,1348765207,0.0006205686,2.7379069523,0.0009633223,244578735,
FR,Versailles,48.8039741516,2.1265826225,444499.694998,0.0018128453,3.0144429161,1.0638560537,11584,4362,778760.468503,3833,5.3113250802,6512,68.2585526717,67.2272503888,3.45473661111E-05,0.0604124364,0.1043472275,139458486,0.0014436008,2.8630084496,0.0017470431,74906073,
FR,Dijon,47.3232498169,5.0437912941,804475.976895,0.0039461883,2.9030700242,1.0680436708,22300,8697,1411082.49185,7483,5.1282051282,12548,64.1118884997,63.2772417869,1.73480511241E-05,0.053660266,0.0913562761,1387921531,0.0004500609,2.7732636322,0.0015207551,2626550126,
FR,Metz,49.1115264893,6.1980757713,798020.894509,0.0051813472,2.7594698843,1.087603987,24704,10111,1400257.94541,8150,4.886559193,13914,57.3538087185,56.6814258992,1.49562466581E-05,0.053651139,0.0936334207,1684930889,0.0005784558,2.7048758778,0.0013838898,725328691,
FR,Nice,43.7044906616,7.2505178452,1035385.14686,0.0043313192,2.7703593187,1.1822901369,18701,8043,1748244.8856,6517,4.65025488,11133,93.0014503603,93.4840321693,1.87459189003E-05,0.0464627627,0.0800180377,29655796,0.0005278868,2.579510133,0.0005022624,1667425761,
FR,Le-havre,49.5052375793,0.1316060275,941729.07522,0.0046343975,2.8050782533,1.0790080689,23304,9137,1680605.28164,7508,5.1010178396,12809,73.5208896261,72.1166015122,1.64878778575E-05,0.049141377,0.0699292875,2386856832,0.0005508769,2.8037849768,0.0008286171,1020453796,
FR,Brest,48.3974456787,-4.496070385,907539.431693,0.0046649863,2.8908443741,1.0890227556,26581,10114,1657262.71666,8729,5.2562784259,14609,62.1219407005,62.3476436801,1.48542853918E-05,0.055655527,0.1010817493,16810484,0.0003357251,2.8284210006,0.0009904994,34708890,
FR,Aix-en-provence,43.5196838379,5.4163565636,1536085.02973,0.007819063,2.6070650132,1.1241835985,30950,13305,2797884.45921,10124,4.6523863209,17388,88.3416741277,90.4001440777,0.000011323,0.0638256295,0.0828975225,3574202393,0.0003375168,2.6434072404,0.0006270405,2372062485,
FR,Avignon,43.9343414307,4.8302993774,866411.420422,0.0052823706,2.7641370612,1.0976104802,23285,9514,1547455.98528,7762,4.8948917385,13175,65.7617776411,66.4572035766,1.58162248102E-05,0.0529460344,0.0887407221,879507,0.000505067,2.7006884591,0.0007538387,1546278027,
FR,Bastia,42.6907348633,9.4451236725,128622.184437,0.0033726813,2.7987421384,1.19380963,2372,954,234331.785966,812,4.9727463312,1328,96.8540545459,98.7908035269,0.0001580098,0.0689727463,0.0783542056,3055803005,0.0067262942,2.7078092243,0.0019770026,1307124792,
FR,Albi,43.9288787842,2.1556241512,508264.66391,0.0063268893,2.6439601922,1.099169605,14225,5828,926487.336702,4518,4.8816060398,7706,65.9570028433,65.1309199791,2.58662058636E-05,0.0476778769,0.0978254831,249277817,0.0006060665,2.7362245482,0.001429345,1026667879,
FR,Cannes,43.5538597107,6.9999852181,348055.428084,0.0058602907,2.8540065862,1.1488017724,8532,3644,593124.577743,3118,4.682766191,5162,67.426468052,69.5176485869,4.15875147259E-05,0.0546521353,0.0895596593,1230004728,0.0011208635,2.5512120381,0.0020097224,130231777,
FR,Caen,49.1865844727,-0.3699726462,648724.387823,0.0041397031,2.9062348961,1.0743354582,21016,8276,1109404.42628,7085,5.0787820203,11984,54.1325423751,52.7885623467,1.81754731613E-05,0.0560012889,0.1402384066,26018478,0.0005728216,2.7503725632,0.0020261702,3213466384,
FR,Nanterre,48.8956565857,2.2094886303,367548.143477,0.0038076751,2.8031670042,1.0883319619,13394,5431,617708.747849,4456,4.9324249678,7574,48.5276133452,46.1183177429,2.78305803659E-05,0.0525931382,0.115294545,1458447121,0.0008829567,2.7003099491,0.001224699,1343513245,
FR,Nantes,47.2268295288,-1.5494861603,1291350.8981,0.0037890608,2.8347334133,1.0680638741,44866,17499,2301707.54407,14689,5.1278358763,24757,52.1610412449,51.3018219603,8.61282163355E-06,0.0486117574,0.1245210295,3124628260,0.0002713388,2.8010212829,0.0006813537,283833760,
FR,Colmar,48.0824241638,7.3563976288,574646.131089,0.0037198771,2.7993547086,1.0706286633,12366,4959,1050388.8271,4141,4.9872958258,6902,83.2579152548,84.9416809879,3.04341037659E-05,0.0497210459,0.0740135125,170657586,0.0007503678,2.7148383411,0.0010488524,638548567,
FR,Tarbes,43.2330436707,0.0681769699,333441.170028,0.0045730285,2.7672634271,1.0825574479,10715,4301,592686.129373,3555,4.9825621948,5918,56.3435569496,55.3136844958,3.49271883204E-05,0.0564054871,0.0788262493,3756440323,0.0009958354,2.7283732465,0.0014252194,411065469,
FR,Saint-etienne,45.4357147217,4.4008116722,800385.671859,0.0039012535,2.8868137176,1.1060277512,15636,6211,1421206.25143,5330,5.0349380132,8925,89.679066875,90.8932112706,2.43563480501E-05,0.0634984526,0.0725308086,784761839,0.0005976571,2.727481197,0.0019211424,656670117,
FR,Toulouse,43.5972137451,1.4325165749,2541762.20372,0.0054895376,2.8687364905,1.092076269,77420,30534,4374924.9339,25863,5.0710683173,43854,57.9596434468,56.5089761547,4.94125736752E-06,0.0578452747,0.1162877538,1372592270,0.0001674957,2.7522639088,0.0010533249,243450757,
FR,Le-mans,47.995059967,0.2012452036,1023107.76349,0.003769267,2.8155456417,1.0806205864,29714,11656,1811911.2488,9720,5.098490048,16370,62.4989470674,60.9783687419,1.29173726987E-05,0.0458698974,0.0890730546,341282129,0.0003363526,2.7880025003,0.0013182719,1518892122,
FR,Marseille,43.3012657166,5.4042673111,3302318.52357,0.0049992132,2.7321666957,1.1377517386,82613,34458,5820075.63134,27688,4.7949968077,47191,69.9777187084,70.4498763068,4.36757301898E-06,0.0530026893,0.1054027225,4177264926,0.000151498,2.6649525026,0.0006854406,33781380,
FR,Montpellier,43.6147880554,3.8685276508,1358569.78746,0.0058636476,2.872056338,1.0965096927,44341,17750,2325559.71681,14981,4.9961690141,25524,53.2271504254,52.4471644033,8.49278681487E-06,0.0570367986,0.1334688909,25955229,0.0002718838,2.7250544601,0.0006662527,247279135,
FR,Besancon,47.2419586182,6.0053138733,950877.926151,0.00390625,2.8001597809,1.0764708949,22528,8762,1741432.99731,7197,5.142204976,12232,77.7369135179,77.3008255199,1.71708961102E-05,0.0558814578,0.0842393645,2932872677,0.0007560633,2.8309651526,0.0017098019,1324259210,
FR,Grenoble,45.182472229,5.7248220444,690341.184604,0.0009087811,3.0507406001,1.0507674952,35212,13165,1195548.17652,11436,5.3493353589,20003,34.5118824478,33.9528619936,1.14617602185E-05,0.0332530338,0.1966014342,1896612105,0.000454439,2.9114546145,0.0005056377,135799,
FR,Strasbourg,48.5769424438,7.7498660088,1362216.14457,0.0029245111,2.9514073468,1.0715066365,38297,14673,2393175.244,12627,5.2200640633,21621,63.0043080603,62.4898880852,1.02768354307E-05,0.0481420361,0.1094161758,622756,0.0003348099,2.8330902565,0.0006695408,270658759,
FR,Bordeaux,44.8481674194,-0.5775207281,961360.300987,0.0026786671,3.0032211579,1.062273776,27999,11797,1474310.01382,10260,4.7468000339,17573,54.7066693784,52.6558096295,1.2867760891E-05,0.0528742174,0.1204645264,510722552,0.0004662366,2.566771213,0.0007038179,35258656,
FR,Limoges,45.8432731628,1.2574239969,1170248.99445,0.0059265934,2.7725445648,1.0974555507,28853,11444,2118290.95925,9413,5.0424676687,15846,73.8513817022,73.4166623661,1.31528047148E-05,0.0645258068,0.0749504645,484575645,0.0003140333,2.7636534429,0.0016397187,510141861,
FR,Reims,49.2489051819,4.0353279114,720643.23171,0.0048018439,2.9108112556,1.0709346448,15619,6077,1253486.88319,5357,5.1403653118,8795,81.937831917,80.2539780517,2.48348614049E-05,0.0654818715,0.0643097636,1095894049,0.0007566227,2.748037879,0.0018986345,1102032609,
FR,Perpignan,42.695690155,2.8949642181,937459.234336,0.0040516269,2.8845032285,1.0944074763,23941,9602,1586187.85238,8375,4.9866694439,13816,67.8531582467,66.2540350187,1.56922645699E-05,0.0710962994,0.0848110789,35194945,0.0004889519,2.6712247448,0.0013889592,1018563444,
FR,Rouen,49.4404945374,1.0946120024,474502.021081,0.0031384209,3.0092369478,1.0602211102,12108,4980,765595.818018,4388,4.8626506024,7392,64.1912907307,63.2305763147,3.04153909694E-05,0.0482979537,0.1070209215,317398050,0.0009712968,2.6267135208,0.0007238245,281201576,
FR,Lyon,45.757522583,4.8369011879,1123204.10162,0.0030093101,3.0145490555,1.062858933,31901,13128,1751931.88702,11444,4.8599939062,19640,57.189618209,54.9177733306,1.15611659606E-05,0.0569723141,0.1106607472,15925418,0.0004153418,2.6201807841,0.001542715,2158548068,
FR,Lille,50.6309700012,3.054172039,806173.513622,0.005078608,2.8533916849,1.075295582,22644,9597,1289836.59494,8103,4.7189746796,13597,59.2905430332,56.9615171762,1.57910620161E-05,0.0477698884,0.08644408,955253183,0.0004917567,2.5482008267,0.0010971542,1649136003,
FR,Rennes,48.1135902405,-1.6732028723,1253269.1102,0.0032979471,2.8950030346,1.0747801014,51244,19772,2202030.28124,16799,5.1834918066,28570,43.8666121877,42.9714753189,7.61367384956E-06,0.0519763398,0.1409031308,28082750,0.0002459824,2.823908389,0.0010837424,2424652721,
FR,Orleans,47.9024238586,1.9082406759,376090.712497,0.0045832445,2.9687830688,1.0637206868,9382,3780,628323.254888,3347,4.964021164,5532,67.9845828808,66.9711420686,3.99397019713E-05,0.0539770723,0.0763347067,279323576,0.0010641668,2.6503703704,0.0015945742,1905663094,
FR,Tours,47.3933525085,0.6930612326,809099.579877,0.0035838478,2.9973370064,1.0670504043,28182,10890,1376845.92847,9656,5.1757575758,16255,49.7754278608,48.8555080714,1.38467331121E-05,0.0482154882,0.1165076195,451772469,0.0004974464,2.7697566575,0.0013214411,934876414,
FR,Ooitiers,46.5793571472,0.3536620438,761519.384513,0.0067584586,2.704004879,1.094448439,23822,9838,1354786.60977,7821,4.8428542387,13264,57.4124988324,56.8712370823,1.53338647665E-05,0.0537981975,0.1174812029,282069487,0.0005266851,2.6912058684,0.0012384306,1315381859,
